{
  "cordova-plugin-whitelist": {
    "source": {
      "type": "registry",
      "id": "cordova-plugin-whitelist@^1.3.4"
    },
    "is_top_level": true,
    "variables": {}
  },
  "cordova-plugin-statusbar": {
    "source": {
      "type": "registry",
      "id": "cordova-plugin-statusbar@^2.4.3"
    },
    "is_top_level": true,
    "variables": {}
  },
  "cordova-plugin-device": {
    "source": {
      "type": "registry",
      "id": "cordova-plugin-device@^2.0.3"
    },
    "is_top_level": true,
    "variables": {}
  },
  "cordova-plugin-ionic-webview": {
    "source": {
      "type": "registry",
      "id": "cordova-plugin-ionic-webview@^4.2.1"
    },
    "is_top_level": true,
    "variables": {
      "ANDROID_SUPPORT_ANNOTATIONS_VERSION": "27.+"
    }
  },
  "cordova-plugin-ionic-keyboard": {
    "source": {
      "type": "registry",
      "id": "cordova-plugin-ionic-keyboard@^2.2.0"
    },
    "is_top_level": true,
    "variables": {}
  },
  "phonegap-plugin-barcodescanner": {
    "source": {
      "type": "registry",
      "id": "phonegap-plugin-barcodescanner@^8.1.0"
    },
    "is_top_level": true,
    "variables": {
      "ANDROID_SUPPORT_V4_VERSION": "27.+"
    }
  },
  "cordova-plugin-splashscreen": {
    "source": {
      "type": "registry",
      "id": "cordova-plugin-splashscreen@^5.0.2"
    },
    "is_top_level": true,
    "variables": {}
  },
  "cordova-plugin-nativestorage": {
    "source": {
      "type": "registry",
      "id": "cordova-plugin-nativestorage@^2.3.2"
    },
    "is_top_level": true,
    "variables": {}
  },
  "cordova-plugin-geolocation": {
    "source": {
      "type": "registry",
      "id": "cordova-plugin-geolocation@^4.1.0"
    },
    "is_top_level": true,
    "variables": {
      "GPS_REQUIRED": "true"
    }
  },
  "uk.co.workingedge.phonegap.plugin.launchnavigator": {
    "source": {
      "type": "registry",
      "id": "uk.co.workingedge.phonegap.plugin.launchnavigator@^5.0.5"
    },
    "is_top_level": true,
    "variables": {
      "GOOGLE_API_KEY_FOR_ANDROID": "",
      "OKHTTP_VERSION": "3.12.0"
    }
  },
  "cordova-plugin-actionsheet": {
    "source": {
      "type": "registry",
      "id": "cordova-plugin-actionsheet@2"
    },
    "is_top_level": false,
    "variables": {}
  },
  "cordova-plugin-dialogs": {
    "source": {
      "type": "registry",
      "id": "cordova-plugin-dialogs@*"
    },
    "is_top_level": false,
    "variables": {}
  },
  "cordova-plugin-android-permissions": {
    "source": {
      "type": "registry",
      "id": "cordova-plugin-android-permissions@^1.1.2"
    },
    "is_top_level": true,
    "variables": {}
  },
  "cordova-plugin-androidx": {
    "source": {
      "type": "registry",
      "id": "cordova-plugin-androidx@^3.0.0"
    },
    "is_top_level": true,
    "variables": {}
  },
  "cordova-plugin-androidx-adapter": {
    "source": {
      "type": "registry",
      "id": "cordova-plugin-androidx-adapter@^1.1.3"
    },
    "is_top_level": true,
    "variables": {}
  },
  "cordova-plugin-firebasex": {
    "source": {
      "type": "registry",
      "id": "cordova-plugin-firebasex@^11.0.3"
    },
    "is_top_level": true,
    "variables": {
      "FIREBASE_ANALYTICS_COLLECTION_ENABLED": "true",
      "FIREBASE_PERFORMANCE_COLLECTION_ENABLED": "true",
      "FIREBASE_CRASHLYTICS_COLLECTION_ENABLED": "true",
      "ANDROID_ICON_ACCENT": "#FF00FFFF",
      "ANDROID_FIREBASE_PERFORMANCE_MONITORING": "false",
      "ANDROID_PLAY_SERVICES_TAGMANAGER_VERSION": "17.0.0",
      "ANDROID_PLAY_SERVICES_AUTH_VERSION": "18.1.0",
      "ANDROID_FIREBASE_ANALYTICS_VERSION": "17.5.0",
      "ANDROID_FIREBASE_MESSAGING_VERSION": "20.3.0",
      "ANDROID_FIREBASE_CONFIG_VERSION": "19.2.0",
      "ANDROID_FIREBASE_PERF_VERSION": "19.0.9",
      "ANDROID_FIREBASE_AUTH_VERSION": "19.4.0",
      "ANDROID_FIREBASE_INAPPMESSAGING_VERSION": "19.1.1",
      "ANDROID_FIREBASE_FIRESTORE_VERSION": "21.7.0",
      "ANDROID_FIREBASE_CRASHLYTICS_VERSION": "17.2.2",
      "ANDROID_FIREBASE_CRASHLYTICS_NDK_VERSION": "17.2.2",
      "ANDROID_GSON_VERSION": "2.8.6",
      "ANDROID_FIREBASE_PERF_GRADLE_PLUGIN_VERSION": "1.3.1"
    }
  },
  "cordova-plugin-request-location-accuracy": {
    "source": {
      "type": "registry",
      "id": "cordova-plugin-request-location-accuracy@^2.3.0"
    },
    "is_top_level": true,
    "variables": {
      "PLAY_SERVICES_LOCATION_VERSION": "16.+"
    }
  },
  "cordova-sqlite-storage": {
    "source": {
      "type": "registry",
      "id": "cordova-sqlite-storage@^5.1.0"
    },
    "is_top_level": true,
    "variables": {}
  },
  "mx.ferreyra.callnumber": {
    "source": {
      "type": "registry",
      "id": "call-number@^1.0.1"
    },
    "is_top_level": true,
    "variables": {}
  },
  "cordova-plugin-file": {
    "source": {
      "type": "registry",
      "id": "cordova-plugin-file@^6.0.2"
    },
    "is_top_level": true,
    "variables": {}
  },
  "call-number": {
    "source": {
      "type": "registry",
      "id": "mx.ferreyra.callnumber@^0.0.2"
    },
    "is_top_level": true,
    "variables": {}
  },
  "cordova-plugin-camera": {
    "source": {
      "type": "registry",
      "id": "cordova-plugin-camera@^5.0.2"
    },
    "is_top_level": true,
    "variables": {}
  },
  "com-sarriaroman-photoviewer": {
    "source": {
      "type": "registry",
      "id": "com-sarriaroman-photoviewer"
    },
    "is_top_level": true,
    "variables": {}
  },
  "cordova-plugin-inappbrowser": {
    "source": {
      "type": "registry",
      "id": "cordova-plugin-inappbrowser@5.0.0"
    },
    "is_top_level": true,
    "variables": {}
  }
}