[
    {
        "title": "dashboard",
        "route": "home",
        "url": "home",
        "theme": "listViews",
        "icon": "icon-comment-account",
        "listView": false,
        "component": "",
        "singlePage": false,
        "toggle": true,
        "orderpair": 1
    },
    {
        "title": "works",
        "route": "works",
        "url": "works/w",
        "theme": "listViews",
        "icon": "icon-comment-account",
        "listView": false,
        "component": "",
        "singlePage": false,
        "toggle": true,
        "orderpair": 2
    },
    {
        "title": "customers",
        "route": "customers",
        "url": "customers",
        "theme": "listViews",
        "icon": "icon-comment-account",
        "listView": false,
        "component": "",
        "singlePage": false,
        "toggle": true,
        "orderpair": 3
    },
    {
        "title": "calender",
        "route": "calender",
        "url": "calender",
        "theme": "listViews",
        "icon": "icon-comment-account",
        "listView": false,
        "component": "",
        "singlePage": false,
        "toggle": true,
        "orderpair": 4
    },
    {
        "title": "chat",
        "route": "chat",
        "url": "chat",
        "theme": "listViews",
        "icon": "icon-comment-account",
        "listView": false,
        "component": "",
        "singlePage": false,
        "toggle": false,
        "orderpair": 5
    },
    {
        "title": "qr_code",
        "route": "qr_code",
        "url": "qr_code",
        "theme": "listViews",
        "icon": "icon-comment-account",
        "listView": false,
        "component": "",
        "singlePage": false,
        "toggle": false,
        "orderpair": 6
    },
    {
        "title": "trips",
        "route": "trips",
        "url": "trips",
        "theme": "listViews",
        "icon": "icon-comment-account",
        "listView": false,
        "component": "",
        "singlePage": false,
        "toggle": false,
        "orderpair": 7
    },
    {
        "title": "work_time",
        "route": "work_time",
        "url": "work_time",
        "theme": "listViews",
        "icon": "icon-comment-account",
        "listView": false,
        "component": "",
        "singlePage": false,
        "toggle": false,
        "orderpair": 8
    },
    {
        "title": "reports",
        "route": "reports",
        "url": "reports",
        "theme": "listViews",
        "icon": "icon-comment-account",
        "listView": false,
        "component": "",
        "singlePage": false,
        "toggle": false,
        "orderpair": 9
    },
    
    
    {
        "title": "own_settings",
        "route": "own_settings",
        "url": "own_settings",
        "theme": "listViews",
        "icon": "icon-comment-account",
        "listView": false,
        "component": "",
        "singlePage": false,
        "toggle": true,
        "orderpair": 10
    },
    {
        "title": "logout",
        "route": "logout",
        "url": "logout",
        "theme": "listViews",
        "icon": "icon-comment-account",
        "listView": false,
        "component": "",
        "singlePage": false,
        "toggle": true,
        "orderpair": 11
    }
]